digraph tgf {
	N1 <- 2 <- 3 <- 4 <- 5 <- 6 <- 7 <- 8 <- 9 <- 11 <- 12 <- 13 <- 14 <- 18 <- 20 <- 22 <- 32;
	N2 <- 3 <- 4 <- 8 <- 14 <- 18 <- 20 <- 22 <- 31;
	N3 <- 4 <- 8 <- 9 <- 10 <- 14 <- 28 <- 29 <- 33;
	N4 <- 8 <- 13 <- 14;
	N5 <- 7 <- 11;
	N6 <- 7 <- 11 <- 17;
	N7 <- 17;
	N9 <- 31 <- 33 <- 34;
	N10 <- 34;
	N14 <- 34;
	N15 <- 33 <- 34;
	N16 <- 33 <- 34;
	N19 <- 33 <- 34;
	N20 <- 34;
	N21 <- 33 <- 34;
	N23 <- 33 <- 34;
	N24 <- 26 <- 28 <- 30 <- 33 <- 34;
	N25 <- 26 <- 28 <- 32;
	N26 <- 32;
	N27 <- 30 <- 34;
	N28 <- 34;
	N29 <- 32 <- 34;
	N30 <- 33 <- 34;
	N31 <- 33 <- 34;
	N32 <- 33 <- 34;
	N33 <- 34;
}
